…
		    height = mean(height, na.rm = TRUE),
		    mass = mean(mass, na.rm = TRUE)
		  )
		  # or
		  starwars %>%
		    group_by(species, sex) %>%
		    select(height, mass) %>%
		    summarise(
		      height = mean(height, na.rm = TRUE),
		      mass = mean(mass, na.rm = TRUE)
		    )
		  #> Adding missing grouping variables: `species`, `sex`
		  #> `summarise()` has grouped output by 'species'. You can override using the
		  #> `.groups` argument.
		  #> # A tibble: 41 × 4
		  #> # Groups:   species [38]
		  #>   species  sex   height  mass
		  #>   <chr>    <chr>  <dbl> <dbl>
		  #> 1 Aleena   male      79    15
		  #> 2 Besalisk male     198   102
		  #> 3 Cerean   male     198    82
		  #> 4 Chagrian male     196   NaN
		  #> # … with 37 more rows
		  ```
…
